dense_dense_ax_core_wave.vcd
$date
	Mon Apr 13 00:16:40 2026
$end
$version
	Icarus Verilog
$end
$timescale
	1ps
$end
$scope module tb_lutein_dense_dense_ax_core $end
$var wire 512 ! c_flat [511:0] $end
$var parameter 32 " ACC_W $end
$var parameter 32 # DATA_W $end
$var parameter 32 $ K $end
$var parameter 32 % M $end
$var parameter 32 & N $end
$var reg 32 ' a_left_data [31:0] $end
$var reg 4 ( a_left_valid [3:0] $end
$var reg 1 ) accum_en $end
$var reg 1 * clear_acc $end
$var reg 1 + clk $end
$var reg 32 , dut_val [31:0] $end
$var reg 1 - mismatch $end
$var reg 1 . rst_n $end
$var reg 32 / x_top_data [31:0] $end
$var reg 4 0 x_top_valid [3:0] $end
$var integer 32 1 i [31:0] $end
$var integer 32 2 j [31:0] $end
$var integer 32 3 k [31:0] $end
$var integer 32 4 t [31:0] $end
$scope module dut $end
$var wire 32 5 a_left_data [31:0] $end
$var wire 4 6 a_left_valid [3:0] $end
$var wire 1 ) accum_en $end
$var wire 1 * clear_acc $end
$var wire 1 + clk $end
$var wire 1 . rst_n $end
$var wire 32 7 x_top_data [31:0] $end
$var wire 4 8 x_top_valid [3:0] $end
$var wire 512 9 c_flat [511:0] $end
$var parameter 32 : ACC_W $end
$var parameter 32 ; DATA_W $end
$var parameter 32 < K $end
$var parameter 32 = M $end
$var parameter 32 > N $end
$scope begin G_A_LEFT[0] $end
$var parameter 2 ? i $end
$upscope $end
$scope begin G_A_LEFT[1] $end
$var parameter 2 @ i $end
$upscope $end
$scope begin G_A_LEFT[2] $end
$var parameter 3 A i $end
$upscope $end
$scope begin G_A_LEFT[3] $end
$var parameter 3 B i $end
$upscope $end
$scope begin G_ROW[0] $end
$var parameter 2 C i $end
$scope begin G_COL[0] $end
$var parameter 2 D j $end
$scope module u_pe $end
$var wire 8 E a_in [7:0] $end
$var wire 1 F a_valid_in $end
$var wire 1 ) accum_en $end
$var wire 1 * clear_acc $end
$var wire 1 + clk $end
$var wire 1 . rst_n $end
$var wire 8 G x_in [7:0] $end
$var wire 1 H x_valid_in $end
$var parameter 32 I ACC_W $end
$var parameter 32 J DATA_W $end
$var reg 8 K a_out [7:0] $end
$var reg 1 L a_valid_out $end
$var reg 32 M acc_out [31:0] $end
$var reg 8 N x_out [7:0] $end
$var reg 1 O x_valid_out $end
$upscope $end
$upscope $end
$scope begin G_COL[1] $end
$var parameter 2 P j $end
$scope module u_pe $end
$var wire 8 Q a_in [7:0] $end
$var wire 1 L a_valid_in $end
$var wire 1 ) accum_en $end
$var wire 1 * clear_acc $end
$var wire 1 + clk $end
$var wire 1 . rst_n $end
$var wire 8 R x_in [7:0] $end
$var wire 1 S x_valid_in $end
$var parameter 32 T ACC_W $end
$var parameter 32 U DATA_W $end
$var reg 8 V a_out [7:0] $end
$var reg 1 W a_valid_out $end
$var reg 32 X acc_out [31:0] $end
$var reg 8 Y x_out [7:0] $end
$var reg 1 Z x_valid_out $end
$upscope $end
$upscope $end
$scope begin G_COL[2] $end
$var parameter 3 [ j $end
$scope module u_pe $end
$var wire 8 \ a_in [7:0] $end
$var wire 1 W a_valid_in $end
$var wire 1 ) accum_en $end
$var wire 1 * clear_acc $end
$var wire 1 + clk $end
$var wire 1 . rst_n $end
$var wire 8 ] x_in [7:0] $end
$var wire 1 ^ x_valid_in $end
$var parameter 32 _ ACC_W $end
$var parameter 32 ` DATA_W $end
$var reg 8 a a_out [7:0] $end
$var reg 1 b a_valid_out $end
$var reg 32 c acc_out [31:0] $end
$var reg 8 d x_out [7:0] $end
$var reg 1 e x_valid_out $end
$upscope $end
$upscope $end
$scope begin G_COL[3] $end
$var parameter 3 f j $end
$scope module u_pe $end
$var wire 8 g a_in [7:0] $end
$var wire 1 b a_valid_in $end
$var wire 1 ) accum_en $end
$var wire 1 * clear_acc $end
$var wire 1 + clk $end
$var wire 1 . rst_n $end
$var wire 8 h x_in [7:0] $end
$var wire 1 i x_valid_in $end
$var parameter 32 j ACC_W $end
$var parameter 32 k DATA_W $end
$var reg 8 l a_out [7:0] $end
$var reg 1 m a_valid_out $end
$var reg 32 n acc_out [31:0] $end
$var reg 8 o x_out [7:0] $end
$var reg 1 p x_valid_out $end
$upscope $end
$upscope $end
$upscope $end
$scope begin G_ROW[1] $end
$var parameter 2 q i $end
$scope begin G_COL[0] $end
$var parameter 2 r j $end
$scope module u_pe $end
$var wire 8 s a_in [7:0] $end
$var wire 1 t a_valid_in $end
$var wire 1 ) accum_en $end
$var wire 1 * clear_acc $end
$var wire 1 + clk $end
$var wire 1 . rst_n $end
$var wire 8 u x_in [7:0] $end
$var wire 1 O x_valid_in $end
$var parameter 32 v ACC_W $end
$var parameter 32 w DATA_W $end
$var reg 8 x a_out [7:0] $end
$var reg 1 y a_valid_out $end
$var reg 32 z acc_out [31:0] $end
$var reg 8 { x_out [7:0] $end
$var reg 1 | x_valid_out $end
$upscope $end
$upscope $end
$scope begin G_COL[1] $end
$var parameter 2 } j $end
$scope module u_pe $end
$var wire 8 ~ a_in [7:0] $end
$var wire 1 y a_valid_in $end
$var wire 1 ) accum_en $end
$var wire 1 * clear_acc $end
$var wire 1 + clk $end
$var wire 1 . rst_n $end
$var wire 8 !" x_in [7:0] $end
$var wire 1 Z x_valid_in $end
$var parameter 32 "" ACC_W $end
$var parameter 32 #" DATA_W $end
$var reg 8 $" a_out [7:0] $end
$var reg 1 %" a_valid_out $end
$var reg 32 &" acc_out [31:0] $end
$var reg 8 '" x_out [7:0] $end
$var reg 1 (" x_valid_out $end
$upscope $end
$upscope $end
$scope begin G_COL[2] $end
$var parameter 3 )" j $end
$scope module u_pe $end
$var wire 8 *" a_in [7:0] $end
$var wire 1 %" a_valid_in $end
$var wire 1 ) accum_en $end
$var wire 1 * clear_acc $end
$var wire 1 + clk $end
$var wire 1 . rst_n $end
$var wire 8 +" x_in [7:0] $end
$var wire 1 e x_valid_in $end
$var parameter 32 ," ACC_W $end
$var parameter 32 -" DATA_W $end
$var reg 8 ." a_out [7:0] $end
$var reg 1 /" a_valid_out $end
$var reg 32 0" acc_out [31:0] $end
$var reg 8 1" x_out [7:0] $end
$var reg 1 2" x_valid_out $end
$upscope $end
$upscope $end
$scope begin G_COL[3] $end
$var parameter 3 3" j $end
$scope module u_pe $end
$var wire 8 4" a_in [7:0] $end
$var wire 1 /" a_valid_in $end
$var wire 1 ) accum_en $end
$var wire 1 * clear_acc $end
$var wire 1 + clk $end
$var wire 1 . rst_n $end
$var wire 8 5" x_in [7:0] $end
$var wire 1 p x_valid_in $end
$var parameter 32 6" ACC_W $end
$var parameter 32 7" DATA_W $end
$var reg 8 8" a_out [7:0] $end
$var reg 1 9" a_valid_out $end
$var reg 32 :" acc_out [31:0] $end
$var reg 8 ;" x_out [7:0] $end
$var reg 1 <" x_valid_out $end
$upscope $end
$upscope $end
$upscope $end
$scope begin G_ROW[2] $end
$var parameter 3 =" i $end
$scope begin G_COL[0] $end
$var parameter 2 >" j $end
$scope module u_pe $end
$var wire 8 ?" a_in [7:0] $end
$var wire 1 @" a_valid_in $end
$var wire 1 ) accum_en $end
$var wire 1 * clear_acc $end
$var wire 1 + clk $end
$var wire 1 . rst_n $end
$var wire 8 A" x_in [7:0] $end
$var wire 1 | x_valid_in $end
$var parameter 32 B" ACC_W $end
$var parameter 32 C" DATA_W $end
$var reg 8 D" a_out [7:0] $end
$var reg 1 E" a_valid_out $end
$var reg 32 F" acc_out [31:0] $end
$var reg 8 G" x_out [7:0] $end
$var reg 1 H" x_valid_out $end
$upscope $end
$upscope $end
$scope begin G_COL[1] $end
$var parameter 2 I" j $end
$scope module u_pe $end
$var wire 8 J" a_in [7:0] $end
$var wire 1 E" a_valid_in $end
$var wire 1 ) accum_en $end
$var wire 1 * clear_acc $end
$var wire 1 + clk $end
$var wire 1 . rst_n $end
$var wire 8 K" x_in [7:0] $end
$var wire 1 (" x_valid_in $end
$var parameter 32 L" ACC_W $end
$var parameter 32 M" DATA_W $end
$var reg 8 N" a_out [7:0] $end
$var reg 1 O" a_valid_out $end
$var reg 32 P" acc_out [31:0] $end
$var reg 8 Q" x_out [7:0] $end
$var reg 1 R" x_valid_out $end
$upscope $end
$upscope $end
$scope begin G_COL[2] $end
$var parameter 3 S" j $end
$scope module u_pe $end
$var wire 8 T" a_in [7:0] $end
$var wire 1 O" a_valid_in $end
$var wire 1 ) accum_en $end
$var wire 1 * clear_acc $end
$var wire 1 + clk $end
$var wire 1 . rst_n $end
$var wire 8 U" x_in [7:0] $end
$var wire 1 2" x_valid_in $end
$var parameter 32 V" ACC_W $end
$var parameter 32 W" DATA_W $end
$var reg 8 X" a_out [7:0] $end
$var reg 1 Y" a_valid_out $end
$var reg 32 Z" acc_out [31:0] $end
$var reg 8 [" x_out [7:0] $end
$var reg 1 \" x_valid_out $end
$upscope $end
$upscope $end
$scope begin G_COL[3] $end
$var parameter 3 ]" j $end
$scope module u_pe $end
$var wire 8 ^" a_in [7:0] $end
$var wire 1 Y" a_valid_in $end
$var wire 1 ) accum_en $end
$var wire 1 * clear_acc $end
$var wire 1 + clk $end
$var wire 1 . rst_n $end
$var wire 8 _" x_in [7:0] $end
$var wire 1 <" x_valid_in $end
$var parameter 32 `" ACC_W $end
$var parameter 32 a" DATA_W $end
$var reg 8 b" a_out [7:0] $end
$var reg 1 c" a_valid_out $end
$var reg 32 d" acc_out [31:0] $end
$var reg 8 e" x_out [7:0] $end
$var reg 1 f" x_valid_out $end
$upscope $end
$upscope $end
$upscope $end
$scope begin G_ROW[3] $end
$var parameter 3 g" i $end
$scope begin G_COL[0] $end
$var parameter 2 h" j $end
$scope module u_pe $end
$var wire 8 i" a_in [7:0] $end
$var wire 1 j" a_valid_in $end
$var wire 1 ) accum_en $end
$var wire 1 * clear_acc $end
$var wire 1 + clk $end
$var wire 1 . rst_n $end
$var wire 8 k" x_in [7:0] $end
$var wire 1 H" x_valid_in $end
$var parameter 32 l" ACC_W $end
$var parameter 32 m" DATA_W $end
$var reg 8 n" a_out [7:0] $end
$var reg 1 o" a_valid_out $end
$var reg 32 p" acc_out [31:0] $end
$var reg 8 q" x_out [7:0] $end
$var reg 1 r" x_valid_out $end
$upscope $end
$upscope $end
$scope begin G_COL[1] $end
$var parameter 2 s" j $end
$scope module u_pe $end
$var wire 8 t" a_in [7:0] $end
$var wire 1 o" a_valid_in $end
$var wire 1 ) accum_en $end
$var wire 1 * clear_acc $end
$var wire 1 + clk $end
$var wire 1 . rst_n $end
$var wire 8 u" x_in [7:0] $end
$var wire 1 R" x_valid_in $end
$var parameter 32 v" ACC_W $end
$var parameter 32 w" DATA_W $end
$var reg 8 x" a_out [7:0] $end
$var reg 1 y" a_valid_out $end
$var reg 32 z" acc_out [31:0] $end
$var reg 8 {" x_out [7:0] $end
$var reg 1 |" x_valid_out $end
$upscope $end
$upscope $end
$scope begin G_COL[2] $end
$var parameter 3 }" j $end
$scope module u_pe $end
$var wire 8 ~" a_in [7:0] $end
$var wire 1 y" a_valid_in $end
$var wire 1 ) accum_en $end
$var wire 1 * clear_acc $end
$var wire 1 + clk $end
$var wire 1 . rst_n $end
$var wire 8 !# x_in [7:0] $end
$var wire 1 \" x_valid_in $end
$var parameter 32 "# ACC_W $end
$var parameter 32 ## DATA_W $end
$var reg 8 $# a_out [7:0] $end
$var reg 1 %# a_valid_out $end
$var reg 32 &# acc_out [31:0] $end
$var reg 8 '# x_out [7:0] $end
$var reg 1 (# x_valid_out $end
$upscope $end
$upscope $end
$scope begin G_COL[3] $end
$var parameter 3 )# j $end
$scope module u_pe $end
$var wire 8 *# a_in [7:0] $end
$var wire 1 %# a_valid_in $end
$var wire 1 ) accum_en $end
$var wire 1 * clear_acc $end
$var wire 1 + clk $end
$var wire 1 . rst_n $end
$var wire 8 +# x_in [7:0] $end
$var wire 1 f" x_valid_in $end
$var parameter 32 ,# ACC_W $end
$var parameter 32 -# DATA_W $end
$var reg 8 .# a_out [7:0] $end
$var reg 1 /# a_valid_out $end
$var reg 32 0# acc_out [31:0] $end
$var reg 8 1# x_out [7:0] $end
$var reg 1 2# x_valid_out $end
$upscope $end
$upscope $end
$upscope $end
$scope begin G_X_TOP[0] $end
$var parameter 2 3# j $end
$upscope $end
$scope begin G_X_TOP[1] $end
$var parameter 2 4# j $end
$upscope $end
$scope begin G_X_TOP[2] $end
$var parameter 3 5# j $end
$upscope $end
$scope begin G_X_TOP[3] $end
$var parameter 3 6# j $end
$upscope $end
$upscope $end
$scope task check_outputs $end
$upscope $end
$scope task clear_inputs $end
$upscope $end
$scope task compute_expected $end
$upscope $end
$scope task inject_wavefront $end
$var integer 32 7# step [31:0] $end
$upscope $end
$upscope $end
$enddefinitions $end
$comment Show the parameter values. $end
$dumpall
b11 6#
b10 5#
b1 4#
b0 3#
b1000 -#
b100000 ,#
b11 )#
b1000 ##
b100000 "#
b10 }"
b1000 w"
b100000 v"
b1 s"
b1000 m"
b100000 l"
b0 h"
b11 g"
b1000 a"
b100000 `"
b11 ]"
b1000 W"
b100000 V"
b10 S"
b1000 M"
b100000 L"
b1 I"
b1000 C"
b100000 B"
b0 >"
b10 ="
b1000 7"
b100000 6"
b11 3"
b1000 -"
b100000 ,"
b10 )"
b1000 #"
b100000 ""
b1 }
b1000 w
b100000 v
b0 r
b1 q
b1000 k
b100000 j
b11 f
b1000 `
b100000 _
b10 [
b1000 U
b100000 T
b1 P
b1000 J
b100000 I
b0 D
b0 C
b11 B
b10 A
b1 @
b0 ?
b100 >
b100 =
b100 <
b1000 ;
b100000 :
b100 &
b100 %
b100 $
b1000 #
b100000 "
$end
#0
$dumpvars
bx 7#
02#
b0 1#
b0 0#
0/#
b0 .#
b0 +#
b0 *#
0(#
b0 '#
b0 &#
0%#
b0 $#
b0 !#
b0 ~"
0|"
b0 {"
b0 z"
0y"
b0 x"
b0 u"
b0 t"
0r"
b0 q"
b0 p"
0o"
b0 n"
b0 k"
0j"
b0 i"
0f"
b0 e"
b0 d"
0c"
b0 b"
b0 _"
b0 ^"
0\"
b0 ["
b0 Z"
0Y"
b0 X"
b0 U"
b0 T"
0R"
b0 Q"
b0 P"
0O"
b0 N"
b0 K"
b0 J"
0H"
b0 G"
b0 F"
0E"
b0 D"
b0 A"
0@"
b0 ?"
0<"
b0 ;"
b0 :"
09"
b0 8"
b0 5"
b0 4"
02"
b0 1"
b0 0"
0/"
b0 ."
b0 +"
b0 *"
0("
b0 '"
b0 &"
0%"
b0 $"
b0 !"
b0 ~
0|
b0 {
b0 z
0y
b0 x
b0 u
0t
b0 s
0p
b0 o
b0 n
0m
b0 l
0i
b0 h
b0 g
0e
b0 d
b0 c
0b
b0 a
0^
b0 ]
b0 \
0Z
b0 Y
b0 X
0W
b0 V
0S
b0 R
b0 Q
0O
b0 N
b0 M
0L
b0 K
0H
b0 G
0F
b0 E
b0 9
b0 8
b0 7
b0 6
b0 5
bx 4
b100 3
b100 2
b100 1
b0 0
b0 /
0.
x-
bx ,
0+
0*
1)
b0 (
b0 '
b0 !
$end
#5000
1+
#10000
0+
#15000
1+
#20000
0+
#25000
1*
1.
1+
#30000
0+
#35000
b1 G
1H
b1 E
1F
b1 /
b1 7
b1 0
b1 8
b100 2
b1 '
b1 5
b1 (
b1 6
b100 1
b0 7#
b0 4
0*
1+
#40000
0+
#45000
b1 !
b1 9
b1 M
b1 N
b1 u
b1 K
b1 Q
1O
1L
1S
1t
b10 G
b10 E
b100 2
b100 1
b10 /
b10 7
b11 0
b11 8
b10 '
b10 5
b11 (
b11 6
b1 7#
b1 4
1+
#50000
0+
#55000
b101 !
b101 9
b101 M
b10 N
b10 u
b10 K
b10 Q
b1 V
b1 \
1Z
1W
b1 {
b1 A"
1|
1y
b10 ]
1^
b1 R
b10 ?"
1@"
b1 s
b11111111 G
b11 E
b100 2
b100 1
b100000000111111111 /
b100000000111111111 7
b111 0
b111 8
b100000000100000011 '
b100000000100000011 5
b111 (
b111 6
b10 7#
b10 4
1+
#60000
0+
#65000
b10 F"
b1 G"
b1 k"
b10 D"
b10 J"
1H"
1E"
1("
1%"
b10 z
b10 {
b10 A"
b1 x
b1 ~
b10 c
b10 d
b10 +"
b1 a
b1 g
1e
1b
b10 X
b1 Y
b1 !"
b10 V
b10 \
b100000000000000000000000000000000000000000000000000000000000000000000000000000000000000000000000000000000000000000000000000000001000000000000000000000000000000000000000000000000000000000000000100000000000000000000000000000001000000000000000000000000000000010 !
b100000000000000000000000000000000000000000000000000000000000000000000000000000000000000000000000000000000000000000000000000000001000000000000000000000000000000000000000000000000000000000000000100000000000000000000000000000001000000000000000000000000000000010 9
b10 M
b11111111 N
b11111111 u
b11 K
b11 Q
b11111111 h
1i
b11111111 i"
1j"
b0 G
b10 R
b0 ]
b100 E
b11111111 s
b0 ?"
b100 2
b100 1
b11111111000000000000001000000000 /
b11111111000000000000001000000000 7
b1111 0
b1111 8
b11111111000000001111111100000100 '
b11111111000000001111111100000100 5
b1111 (
b1111 6
b11 7#
b11 4
1+
#70000
0+
#75000
b0 N
b0 u
b100 K
b100 Q
b1000 X
b10 Y
b10 !"
b11 V
b11 \
b0 d
b0 +"
b10 a
b10 g
b11111111111111111111111111111111 n
b11111111 o
b11111111 5"
b1 l
1p
1m
b11 z
b11111111 {
b11111111 A"
b11111111 x
b11111111 ~
b1 &"
b1 '"
b1 K"
b1 $"
b1 *"
b10 1"
b10 U"
12"
1/"
b10 G"
b10 k"
b0 D"
b0 J"
b10 N"
b10 T"
1R"
1O"
b11111111111111111111111111111111000000000000000000000000000000000000000000000000000000000000000000000000000000000000000000000000000000000000000000000000000000100000000000000000000000000000000000000000000000000000000000000000000000000000000000000000000000010000000000000000000000000000001111111111111111111111111111111111000000000000000000000000000000100000000000000000000000000000100000000000000000000000000000000010 !
b11111111111111111111111111111111000000000000000000000000000000000000000000000000000000000000000000000000000000000000000000000000000000000000000000000000000000100000000000000000000000000000000000000000000000000000000000000000000000000000000000000000000000010000000000000000000000000000001111111111111111111111111111111111000000000000000000000000000000100000000000000000000000000000100000000000000000000000000000000010 9
b11111111111111111111111111111111 p"
b1 q"
b11111111 n"
b11111111 t"
1r"
1o"
b1 ]
b1 ?"
b11111110 R
b11 h
0H
b0 E
b10 s
b11 i"
0F
b100 2
b100 1
b11000000011111111000000000 /
b11000000011111111000000000 7
b1110 0
b1110 8
b11000000010000001000000000 '
b11000000010000001000000000 5
b1110 (
b1110 6
b100 7#
b100 4
1+
#80000
0+
#85000
b11111111 x"
b11111111 ~"
1|"
1y"
b101 p"
b10 q"
b11 n"
b11 t"
b100 Z"
b10 ["
b10 !#
b10 X"
b10 ^"
1\"
1Y"
b1 Q"
b1 u"
b0 N"
b0 T"
b1 F"
b11111111 G"
b11111111 k"
b1 D"
b1 J"
b11111111 ;"
b11111111 _"
1<"
19"
b0 1"
b0 U"
b1 ."
b1 4"
b11111111111111111111111111111111 &"
b10 '"
b10 K"
b11111111 $"
b11111111 *"
b0 {
b0 A"
b10 x
b10 ~
b101 n
b11 o
b11 5"
b10 l
b101 c
b1 d
b1 +"
b11 a
b11 g
b101000000000000000000000000000000000000000000000000000000000000010000000000000000000000000000000000000000000000000000000000000000010000000000000000000000000000000000000000000000000000000000000000111111111111111111111111111111110000000000000000000000000000001100000000000000000000000000000101000000000000000000000000000001010000000000000000000000000000000000000000000000000000000000000010 !
b101000000000000000000000000000000000000000000000000000000000000010000000000000000000000000000000000000000000000000000000000000000010000000000000000000000000000000000000000000000000000000000000000111111111111111111111111111111110000000000000000000000000000001100000000000000000000000000000101000000000000000000000000000001010000000000000000000000000000000000000000000000000000000000000010 9
b0 X
b11111110 Y
b11111110 !"
b100 V
b100 \
b0 K
b0 Q
0O
0L
b0 R
b0 h
0S
b0 s
b11111110 ?"
b0 i"
0t
b100 2
b100 1
b10000000000000000 /
b10000000000000000 7
b1100 0
b1100 8
b111111100000000000000000 '
b111111100000000000000000 5
b1100 (
b1100 6
b101 7#
b101 4
1+
#90000
0+
#95000
b0 Y
b0 !"
b0 V
b0 \
0Z
0W
b1001 c
b100 a
b100 g
b0 o
b0 5"
b11 l
b0 x
b0 ~
0|
0y
b11111111111111111111111111111011 &"
b11111110 '"
b11111110 K"
b10 $"
b10 *"
b11111111111111111111111111111111 0"
b1 1"
b1 U"
b11111111 ."
b11111111 4"
b11 :"
b11 ;"
b11 _"
b1 8"
b0 G"
b0 k"
b11111110 D"
b11111110 J"
b10 P"
b10 Q"
b10 u"
b1 N"
b1 T"
b0 ["
b0 !#
b0 X"
b0 ^"
b11111111111111111111111111111110 d"
b11111111 e"
b11111111 +#
b10 b"
1f"
1c"
b11111111 q"
b0 n"
b0 t"
b11 z"
b1 {"
b11 x"
b11 ~"
b111111111111111111111111111111100000000000000000000000000000001100000000000000000000000000000101111111111111111111111111111111100000000000000000000000000000010000000000000000000000000000000010000000000000000000000000000000010000000000000000000000000000001111111111111111111111111111111111111111111111111111111111111110110000000000000000000000000000001100000000000000000000000000000101000000000000000000000000000010010000000000000000000000000000000000000000000000000000000000000010 !
b111111111111111111111111111111100000000000000000000000000000001100000000000000000000000000000101111111111111111111111111111111100000000000000000000000000000010000000000000000000000000000000010000000000000000000000000000000010000000000000000000000000000001111111111111111111111111111111111111111111111111111111111111110110000000000000000000000000000001100000000000000000000000000000101000000000000000000000000000010010000000000000000000000000000000000000000000000000000000000000010 9
b11111111111111111111111111111110 &#
b10 '#
b11111111 $#
b11111111 *#
1(#
1%#
b10 h
b1 i"
b0 ]
0^
b0 ?"
0@"
b100 2
b100 1
b10000000000000000000000000 /
b10000000000000000000000000 7
b1000 0
b1000 8
b1000000000000000000000000 '
b1000000000000000000000000 5
b1000 (
b1000 6
b110 7#
b110 4
1+
#100000
0+
#105000
b1 0#
b11111111 1#
b11111111 .#
12#
1/#
b0 '#
b11 $#
b11 *#
b10 {"
b0 x"
b0 ~"
b0 q"
b1 n"
b1 t"
b11 e"
b11 +#
b0 b"
b101 Z"
b1 ["
b1 !#
b1 X"
b1 ^"
b110 P"
b11111110 Q"
b11111110 u"
b11111110 N"
b11111110 T"
b0 D"
b0 J"
0H"
0E"
b0 ;"
b0 _"
b11111111 8"
b1 0"
b10 ."
b10 4"
b0 '"
b0 K"
b0 $"
b0 *"
0("
0%"
b1111111111111111111111111111111100000000000000000000000000000001100000000000000000000000000000101111111111111111111111111111111100000000000000000000000000000010100000000000000000000000000000110000000000000000000000000000000010000000000000000000000000000001100000000000000000000000000000001111111111111111111111111111110110000000000000000000000000000001100000000000000000000000000001101000000000000000000000000000010010000000000000000000000000000000000000000000000000000000000000010 !
b1111111111111111111111111111111100000000000000000000000000000001100000000000000000000000000000101111111111111111111111111111111100000000000000000000000000000010100000000000000000000000000000110000000000000000000000000000000010000000000000000000000000000001100000000000000000000000000000001111111111111111111111111111110110000000000000000000000000000001100000000000000000000000000001101000000000000000000000000000010010000000000000000000000000000000000000000000000000000000000000010 9
b1101 n
b10 o
b10 5"
b100 l
b0 d
b0 +"
b0 a
b0 g
0e
0b
b0 h
0i
b0 i"
0j"
b100 2
b100 1
b0 /
b0 7
b0 0
b0 8
b0 '
b0 5
b0 (
b0 6
b111 7#
b111 4
1+
#110000
0+
#115000
b0 o
b0 5"
b0 l
0p
0m
b0 1"
b0 U"
b0 ."
b0 4"
02"
0/"
b111 :"
b10 ;"
b10 _"
b10 8"
b0 Q"
b0 u"
b0 N"
b0 T"
0R"
0O"
b11 Z"
b11111110 X"
b11111110 ^"
b0 e"
b0 +#
b1 b"
b0 n"
b0 t"
0r"
0o"
b1 z"
b11111110 {"
b1 x"
b1 ~"
b1 '#
b0 $#
b0 *#
b1010111111111111111111111111111111100000000000000000000000000000000100000000000000000000000000000101111111111111111111111111111111100000000000000000000000000000001100000000000000000000000000000110000000000000000000000000000000010000000000000000000000000000011100000000000000000000000000000001111111111111111111111111111110110000000000000000000000000000001100000000000000000000000000001101000000000000000000000000000010010000000000000000000000000000000000000000000000000000000000000010 !
b1010111111111111111111111111111111100000000000000000000000000000000100000000000000000000000000000101111111111111111111111111111111100000000000000000000000000000001100000000000000000000000000000110000000000000000000000000000000010000000000000000000000000000011100000000000000000000000000000001111111111111111111111111111110110000000000000000000000000000001100000000000000000000000000001101000000000000000000000000000010010000000000000000000000000000000000000000000000000000000000000010 9
b1010 0#
b11 1#
b11 .#
b100 2
b100 1
b1000 7#
b1000 4
1+
#120000
0+
#125000
b0 1#
b0 .#
b11111111111111111111111111111111 &#
b1 $#
b1 *#
b0 {"
b0 x"
b0 ~"
0|"
0y"
b1010111111111111111111111111111111110000000000000000000000000000000100000000000000000000000000000101111111111111111111111111111110100000000000000000000000000000001100000000000000000000000000000110000000000000000000000000000000010000000000000000000000000000011100000000000000000000000000000001111111111111111111111111111110110000000000000000000000000000001100000000000000000000000000001101000000000000000000000000000010010000000000000000000000000000000000000000000000000000000000000010 !
b1010111111111111111111111111111111110000000000000000000000000000000100000000000000000000000000000101111111111111111111111111111110100000000000000000000000000000001100000000000000000000000000000110000000000000000000000000000000010000000000000000000000000000011100000000000000000000000000000001111111111111111111111111111110110000000000000000000000000000001100000000000000000000000000001101000000000000000000000000000010010000000000000000000000000000000000000000000000000000000000000010 9
b11111111111111111111111111111010 d"
b10 e"
b10 +#
b11111110 b"
b0 ["
b0 !#
b0 X"
b0 ^"
0\"
0Y"
b0 ;"
b0 _"
b0 8"
0<"
09"
b100 2
b100 1
b1001 7#
b1001 4
1+
#130000
0+
#135000
b0 e"
b0 +#
b0 b"
0f"
0c"
b0 '#
b0 $#
b0 *#
0(#
0%#
b1100111111111111111111111111111111110000000000000000000000000000000100000000000000000000000000000101111111111111111111111111111110100000000000000000000000000000001100000000000000000000000000000110000000000000000000000000000000010000000000000000000000000000011100000000000000000000000000000001111111111111111111111111111110110000000000000000000000000000001100000000000000000000000000001101000000000000000000000000000010010000000000000000000000000000000000000000000000000000000000000010 !
b1100111111111111111111111111111111110000000000000000000000000000000100000000000000000000000000000101111111111111111111111111111110100000000000000000000000000000001100000000000000000000000000000110000000000000000000000000000000010000000000000000000000000000011100000000000000000000000000000001111111111111111111111111111110110000000000000000000000000000001100000000000000000000000000001101000000000000000000000000000010010000000000000000000000000000000000000000000000000000000000000010 9
b1100 0#
b10 1#
b1 .#
b1010 4
1+
#140000
0+
#145000
b0 1#
b0 .#
02#
0/#
1+
#150000
0+
#155000
1+
#160000
0+
#165000
1+
#170000
0+
#175000
b1100 ,
b100 2
b100 1
0-
1+
